{"name": "Arjun Bajpai", "email": "flaskapp@hotmail.com", "empid": "123456"}
{"name": "Indian Raptor", "email": "flaskappIR@hotmail.com", "empid": "123457"}
{"name": "Final Test", "email": "flaskappFT@hotmail.com", "empid": "123458"}
{"name": "Test View", "email": "flaskappTV@hotmail.com", "empid": "123459"}
{"name": "Success Run", "email": "flaskappSR@hotmail.com", "empid": "123460"}
